{
  "token": "123",
  "user": {
    "coMatricula": "c111225",
    "nome": "Teste User",
    "nuLotacao": 123,
    "noLotacao": "Lotacao",
    "nuFuncao": 123123,
    "noFuncao": "FUNÇÃO TESTE",
    "noCargo": "CARGO TESTE",
    "mail": "email@teste.com.br",
    "nuRamal": "(61)998679008",
    "nuCelular": []
  }
}
